{
  "content": [
    {
      "id": 144,
      "updatedDate": "2019-02-06T07:31:15",
      "txnType": "CREDIT",
      "amount": 850.00,
      "txnCurrency": "AED",
      "txnCategory": 1,
      "paymentMode": "DEBIT",
      "balanceAfter": 3331.99,
      "senderName": null,
      "merchant": null
    },
    {
      "id": 144,
      "updatedDate": "2019-02-05T07:31:15",
      "txnType": "CREDIT",
      "amount": 850.00,
      "txnCurrency": "AED",
      "txnCategory": 1,
      "paymentMode": "DEBIT",
      "balanceAfter": 3331.99,
      "senderName": "Careem",
      "merchant": null
    },
    {
      "id": 144,
      "updatedDate": "2019-01-05T02:31:15",
      "txnType": "CREDIT",
      "amount": 850.00,
      "txnCurrency": "AED",
      "txnCategory": 1,
      "paymentMode": "DEBIT",
      "balanceAfter": 3331.99,
      "senderName": "Uber",
      "merchant": null
    },
    {
      "id": 144,
      "updatedDate": "2019-09-05T08:31:35",
      "txnType": "CREDIT",
      "amount": 850.00,
      "txnCurrency": "AED",
      "txnCategory": 1,
      "paymentMode": "DEBIT",
      "balanceAfter": 111.99,
      "senderName": "Emirates",
      "merchant": null
    },
    {
      "id": 144,
      "updatedDate": "2019-09-05T07:31:35",
      "txnType": "DEBIT",
      "amount": 850.00,
      "txnCurrency": "AED",
      "txnCategory": 1,
      "paymentMode": "DEBIT",
      "balanceAfter": 333.99,
      "senderName": "Ali express",
      "merchant": null
    },
    {
      "id": 144,
      "updatedDate": "2019-10-05T09:31:35",
      "txnType": "DEBIT",
      "amount": 850.00,
      "txnCurrency": "AED",
      "txnCategory": 1,
      "paymentMode": "DEBIT",
      "balanceAfter": 222.99,
      "senderName": "Ali express",
      "merchant": null
    },
    {
      "id": 144,
      "updatedDate": "2019-08-05T02:31:35",
      "txnType": "DEBIT",
      "amount": 850.00,
      "txnCurrency": "AED",
      "txnCategory": 1,
      "paymentMode": "DEBIT",
      "balanceAfter": 122.99,
      "senderName": "Huawei",
      "merchant": null
    },
    {
      "id": 143,
      "updatedDate": "2019-08-05T07:19:01",
      "txnType": "DEBIT",
      "amount": 890.00,
      "txnCurrency": "AED",
      "txnCategory": 1,
      "paymentMode": "DEBIT",
      "balanceAfter": 431.99,
      "senderName": "Dinners",
      "merchant": null
    },
    {
      "id": 140,
      "updatedDate": "2019-08-05T06:00",
      "txnType": "DEBIT",
      "amount": 831.00,
      "txnCurrency": "AED",
      "txnCategory": 1,
      "paymentMode": "DEBIT",
      "balanceAfter": 831.00,
      "senderName": "Philips",
      "merchant": null
    },
    {
      "id": 138,
      "updatedDate": "2019-08-05T05:50:43",
      "txnType": "CREDIT",
      "amount": 820.00,
      "txnCurrency": "AED",
      "txnCategory": 1,
      "paymentMode": "DEBIT",
      "balanceAfter": 12.99,
      "senderName": "Samsung",
      "merchant": null
    },
    {
      "id": 137,
      "updatedDate": "2019-08-05T05:47:28",
      "txnType": "CREDIT",
      "amount": 85.00,
      "txnCurrency": "AED",
      "txnCategory": 1,
      "paymentMode": "DEBIT",
      "balanceAfter": 77.99,
      "senderName": "Android",
      "merchant": null
    }
  ],
  "pageable": {
    "sort": {
      "sorted": false,
      "unsorted": true
    },
    "pageSize": 5,
    "pageNumber": 1,
    "offset": 5,
    "unpaged": false,
    "paged": true
  },
  "last": false,
  "totalElements": 56,
  "totalPages": 12,
  "sort": {
    "sorted": false,
    "unsorted": true
  },
  "numberOfElements": 5,
  "first": false,
  "size": 5,
  "number": 1
}
